<svg width="10" height="10" viewBox="0 0 10 10" fill="none" xmlns="http://www.w3.org/2000/svg">
<path fill-rule="evenodd" clip-rule="evenodd" d="M0.977203 0.368408H8.77001C9.2457 0.368408 9.63132 0.75403 9.63132 1.22972V9.02253H7.9087V3.30911L1.58624 9.63157L0.368164 8.41349L6.69062 2.09103H0.977203V0.368408Z" fill="#CC2F2F"/>
</svg>
