<svg width="13" height="11" viewBox="0 0 13 11" fill="none" xmlns="http://www.w3.org/2000/svg">
<path d="M12.477 2.271L8.268 6.48C7.79869 6.94812 7.16287 7.21102 6.5 7.21102C5.83713 7.21102 5.20131 6.94812 4.732 6.48L0.523 2.271C0.516 2.35 0.5 2.4215 0.5 2.5V8.5C0.500794 9.16279 0.764441 9.79822 1.23311 10.2669C1.70178 10.7356 2.3372 10.9992 3 11H10C10.6628 10.9992 11.2982 10.7356 11.7669 10.2669C12.2356 9.79822 12.4992 9.16279 12.5 8.5V2.5C12.5 2.4215 12.484 2.35 12.477 2.271Z" fill="#CC2F2F"/>
<path d="M7.56009 5.773L12.1271 1.2055C11.9059 0.838659 11.5938 0.535019 11.2211 0.323865C10.8483 0.112712 10.4275 0.00117033 9.99909 0H2.99909C2.5707 0.00117033 2.14984 0.112712 1.77711 0.323865C1.40437 0.535019 1.09233 0.838659 0.871094 1.2055L5.43809 5.773C5.71988 6.05366 6.10139 6.21124 6.49909 6.21124C6.8968 6.21124 7.27831 6.05366 7.56009 5.773Z" fill="#CC2F2F"/>
</svg>
