<svg width="12" height="12" viewBox="0 0 12 12" fill="none" xmlns="http://www.w3.org/2000/svg">
<g clip-path="url(#clip0_401_12476)">
<path d="M0 12L0.847607 8.91766C0.191073 7.78332 -0.0711977 6.46504 0.101461 5.16722C0.274119 3.8694 0.872061 2.66454 1.80258 1.73943C2.73309 0.814328 3.9442 0.220663 5.24814 0.0504801C6.55207 -0.119702 7.87598 0.143105 9.0146 0.798156C10.1532 1.45321 11.043 2.46391 11.5459 3.67356C12.0488 4.88321 12.1367 6.22423 11.7961 7.48871C11.4555 8.7532 10.7054 9.87049 9.66198 10.6674C8.61859 11.4643 7.34026 11.8962 6.02517 11.8963C5.0279 11.8965 4.04651 11.6476 3.17087 11.1725L0 12Z" fill="#0CA427"/>
<path fill-rule="evenodd" clip-rule="evenodd" d="M9.03084 7.36325C8.99408 7.30124 8.894 7.26159 8.7449 7.18941C8.59581 7.11723 7.86155 6.75532 7.72369 6.70652C7.58583 6.65773 7.48779 6.6313 7.38771 6.78074C7.28763 6.93018 7.00271 7.26362 6.91489 7.36325C6.82707 7.46288 6.74128 7.47508 6.59218 7.40086C6.15215 7.22554 5.74586 6.97585 5.39123 6.66281C5.06489 6.36226 4.78509 6.01522 4.56099 5.63299C4.47418 5.48457 4.5518 5.40425 4.62634 5.32801C4.70089 5.25176 4.77544 5.15417 4.84999 5.06776C4.91131 4.99257 4.96151 4.90904 4.99909 4.81971C5.01914 4.77879 5.02852 4.7335 5.02638 4.68802C5.02424 4.64254 5.01064 4.59833 4.98684 4.55946C4.95007 4.48524 4.65086 3.75329 4.52729 3.45542C4.40372 3.15756 4.28219 3.20534 4.19131 3.20026C4.10042 3.19517 4.00442 3.20026 3.90435 3.20026C3.83063 3.20326 3.75828 3.22101 3.69161 3.25245C3.62494 3.28389 3.56531 3.32837 3.51628 3.38325C3.34743 3.54253 3.21374 3.73506 3.12372 3.94859C3.03371 4.16212 2.98933 4.39197 2.99342 4.6235C2.99342 5.35444 3.52854 6.06098 3.60615 6.16061C3.68376 6.26024 4.65902 7.76074 6.15919 8.40425C6.43717 8.52392 6.72149 8.62845 7.01088 8.71737C7.31507 8.8101 7.63691 8.8303 7.9504 8.77633C8.23736 8.73363 8.83375 8.41747 8.95833 8.06471C9.08292 7.71195 9.07271 7.42526 9.03084 7.36325Z" fill="white"/>
</g>
<defs>
<clipPath id="clip0_401_12476">
<rect width="12" height="12" fill="white"/>
</clipPath>
</defs>
</svg>
