transformator-tm-25-10-6--0-4,129600
transformator-tm-100-10-6--0-4,157500
transformator-tm-400-10-6--0-4,315000
transformator-tm-1250-10-6--0-4,1138500
transformator-tm-40-10-6--0-4,146700
transformator-tm-160-10-6--0-4,146700
transformator-tm-630-10-6--0-4,423000
transformator-tm-1600-10-6--0-4,1035000
transformator-tm-63-10-6--0-4,166500
transformator-tm-250-10-6--0-4,229500
transformator-tm-1000-10-6--0-4,612000
transformator-tm-2500-10-6--0-4,1874700
transformator-tmg-25-10-6--0-4,125100
transformator-tmg-100-10-6--0-4,175500
transformator-tmg-400-10-6--0-4,315000
transformator-tmg-1250-10-6--0-4,1138500
transformator-tmg-40-10-6--0-4,146700
transformator-tmg-160-10-6--0-4,180000
transformator-tmg-630-10-6--0-4,423000
transformator-tmg-1600-10-6--0-4,1035000
transformator-tmg-63-10-6--0-4,166500
transformator-tmg-250-10-6--0-4,229500
transformator-tmg-1000-10-6--0-4,612000
transformator-tmg-2500-10-6--0-4,1874700
transformator-tmz-250-10-6--0-4,243000
transformator-tmz-1000-10-6--0-4,643500
transformator-tmz-400-10-6--0-4,330300
transformator-tmz-1600-10-6--0-4,1067400
transformator-tmz-630-10-6--0-4,445500
transformator-tmz-2500-10-6--0-4,1874700
transformator-tmzh-25-27-5-0-4-,343800
transformator-tmzh-250-27-5-0-4-,555300
transformator-tmzh-1000-27-5-0-4-,1215000
transformator-tmzh-100-27-5-0-4-,414000
transformator-tmzh-400-27-5-0-4-,724500
transformator-tmzh-1600-27-5-0-4-,1980000
transformator-tmzh-160-27-5-0-4-,462600
transformator-tmzh-630-27-5-0-4-,945000
transformator-tmzh-2500-27-5-0-4-,1890000
transformatornye-podstancii-kioskovogo-tipa-tupikovye-ktp-t-25-2500-kva,
prohodnaja-transformatornaja-podstancija-ktp-p-25-2500-kva,
dvuhtransformatornaja-podstancija-tupikovaja-2ktp-t-25-2500-kva,
dvuhtransformatornaja-podstancija-prohodnogo-tipa-2ktp-p-25-2500-kva,
punkty_kommercheskogo_ucheta_pku-10,
sbornye-kamery-odnostoronnego-obsluzhivanija-kso-366,
sbornye-kamery-odnostoronnego-obsluzhivanija-kso-309,
sbornye-kamery-odnostoronnego-obsluzhivanija-kso-209,
komplektnye-raspredelitelnye-ustrojstva-kru,
transformator-tsz-tsl-63-10-6-0-4,468000
transformator-tsz-tsl-100-10-6-0-4,513000
transformator-tsz-tsl-160-10-6-0-4,603000
transformator-tsz-tsl-250-10-6-0-4,697500
transformator-tsz-tsl-400-10-6-0-4,810000
transformator-tsz-tsl-630-10-6-0-4,904500
transformator-tsz-tsl-1000-10-6-0-4,1243800
transformator-tsz-tsl-1250-10-6-0-4,1350000
transformator-tsz-tsl-1600-10-6-0-4,1890000
transformator-tsz-tsl-2500-10-6-0-4,2520000
podstancziya-ktp-tv-25-160,187000
podstancziya-ktp-tv-250-400,209100
podstancziya-ktp-tv-630,250750
podstancziya-ktp-tv-1000,301750
podstancziya-ktp-tv-1250-1600,454750
podstancziya-ktp-tv-2500,612000
podstancziya-ktp-tk-25-160,261800
podstancziya-ktp-tk-250-400,284750
podstancziya-ktp-tk-630,323000
podstancziya-ktp-tk-1000,376550
podstancziya-ktp-tk-1250-1600,544000
podstancziya-ktp-tk-2500,702950
podstancziya-ktp-p-25-160,336600
podstancziya-ktp-p-250-400,359550
podstancziya-ktp-p-630,399500
podstancziya-ktp-p-1000,451350
podstancziya-ktp-p-1250-1600,634100
podstancziya-ktp-p-2500,793050
podstancziya-2ktp-tv-25-160,455600
podstancziya-2ktp-tv-250-400,510850
podstancziya-2ktp-tv-630,611150
podstancziya-2ktp-tv-1000,738650
podstancziya-2ktp-tv-1250-1600,1116050
podstancziya-2ktp-tv-2500,1509600
podstancziya-2ktp-tk-25-160,642600
podstancziya-2ktp-tk-250-400,699550
podstancziya-2ktp-tk-630,792200
podstancziya-2ktp-tk-1000,925650
podstancziya-2ktp-tk-1250-1600,1339600
podstancziya-2ktp-tk-2500,1734850
podstancziya-2ktp-p-25-160,829600
podstancziya-2ktp-p-250-400,886550
podstancziya-2ktp-p-630,983450
podstancziya-2ktp-p-1000,1112650
podstancziya-2ktp-p-1250-1600,1564850
podstancziya-2ktp-p-2500,1960100
machtovye-transformatornye-podstancii-ktp,118000
podstantsiya-mtp-250,153000
stolbovye-transformatornye-podstancii-stp-25-250-kva,100000
stolbovye-transformatornye-podstantsii-stp-250,135000
transformatornaja-sjendvich-podstancija-uteplennaja-b-ktp-25-2500-kva,750000
transformatornaya-sendvich-podstantsiya-uteplennaya-ktpb-250-400,850000
transformatornaya-sendvich-podstantsiya-uteplennaya-ktpb-630-1000,970000
transformatornaya-sendvich-podstantsiya-uteplennaya-ktpb-1600-2500,1035000
transformatornye-zheleznodorozhnye-podstancii-mtpzh--ktpzh,600000
transformatornye-zheleznodorozhnye-podstantsii-mtpzh-ktpzh-630,680000
transformatornye-zheleznodorozhnye-podstantsii-mtpzh-ktpzh-1000,730000
